%YAML 1.1
%TAG !u! tag:unity3d.com,2011:
--- !u!74 &7400000
AnimationClip:
  m_ObjectHideFlags: 0
  m_CorrespondingSourceObject: {fileID: 0}
  m_PrefabInstance: {fileID: 0}
  m_PrefabAsset: {fileID: 0}
  m_Name: owl flying
  serializedVersion: 6
  m_Legacy: 0
  m_Compressed: 0
  m_UseHighQualityCurve: 1
  m_RotationCurves: []
  m_CompressedRotationCurves: []
  m_EulerCurves: []
  m_PositionCurves:
  - curve:
      serializedVersion: 2
      m_Curve:
      - serializedVersion: 3
        time: 0
        value: {x: -11.26, y: -4.15, z: 0}
        inSlope: {x: 0, y: 0, z: 0}
        outSlope: {x: 0, y: 0, z: 0}
        tangentMode: 0
        weightedMode: 0
        inWeight: {x: 0.33333334, y: 0.33333334, z: 0.33333334}
        outWeight: {x: 0.33333334, y: 0.33333334, z: 0.33333334}
      - serializedVersion: 3
        time: 1.1666667
        value: {x: 0, y: 0, z: 0}
        inSlope: {x: 0, y: 0, z: 0}
        outSlope: {x: 0, y: 0, z: 0}
        tangentMode: 0
        weightedMode: 0
        inWeight: {x: 0.33333334, y: 0.33333334, z: 0.33333334}
        outWeight: {x: 0.33333334, y: 0.33333334, z: 0.33333334}
      m_PreInfinity: 2
      m_PostInfinity: 2
      m_RotationOrder: 4
    path: 
  m_ScaleCurves: []
  m_FloatCurves: []
  m_PPtrCurves:
  - curve:
    - time: 0
      value: {fileID: 21300000, guid: be0b3380b03e26f46a043a1682694ca2, type: 3}
    - time: 0.083333336
      value: {fileID: 21300000, guid: c8be394f23c4d5644a6bf7522ec9414f, type: 3}
    - time: 0.16666667
      value: {fileID: 21300000, guid: e07c8682ec4a02f4198cca1b6529be46, type: 3}
    - time: 0.25
      value: {fileID: 21300000, guid: 69ce2983b2b7ae44abdb9678c24463f4, type: 3}
    - time: 0.33333334
      value: {fileID: 21300000, guid: 0dd912b9be629554e9fb1fc5c4951286, type: 3}
    - time: 0.41666666
      value: {fileID: 21300000, guid: 88a38eb6d21b7914783c0763cca288aa, type: 3}
    - time: 0.5
      value: {fileID: 21300000, guid: a674577ce6f84504bb07e181487b5836, type: 3}
    - time: 0.5833333
      value: {fileID: 21300000, guid: 6711d0e2ae2f29b4bb885d512101061f, type: 3}
    - time: 0.6666667
      value: {fileID: 21300000, guid: 3edd90af7c3b44640b43bba77555fff6, type: 3}
    - time: 0.75
      value: {fileID: 21300000, guid: f23a8e33357cb484b962bd651e833f07, type: 3}
    - time: 0.8333333
      value: {fileID: 21300000, guid: 06aa5b453977f224a8db4b03e0bec992, type: 3}
    - time: 0.9166667
      value: {fileID: 21300000, guid: 482d1f92303ec5543892270f1af217c2, type: 3}
    - time: 1
      value: {fileID: 21300000, guid: 59dcd8c3147cda7458700707a6b03b64, type: 3}
    - time: 1.0833334
      value: {fileID: 21300000, guid: 038b812a0b7fda640b8452c879b11940, type: 3}
    attribute: m_Sprite
    path: 
    classID: 212
    script: {fileID: 0}
  m_SampleRate: 12
  m_WrapMode: 0
  m_Bounds:
    m_Center: {x: 0, y: 0, z: 0}
    m_Extent: {x: 0, y: 0, z: 0}
  m_ClipBindingConstant:
    genericBindings:
    - serializedVersion: 2
      path: 0
      attribute: 1
      script: {fileID: 0}
      typeID: 4
      customType: 0
      isPPtrCurve: 0
    - serializedVersion: 2
      path: 0
      attribute: 0
      script: {fileID: 0}
      typeID: 212
      customType: 23
      isPPtrCurve: 1
    pptrCurveMapping:
    - {fileID: 21300000, guid: be0b3380b03e26f46a043a1682694ca2, type: 3}
    - {fileID: 21300000, guid: c8be394f23c4d5644a6bf7522ec9414f, type: 3}
    - {fileID: 21300000, guid: e07c8682ec4a02f4198cca1b6529be46, type: 3}
    - {fileID: 21300000, guid: 69ce2983b2b7ae44abdb9678c24463f4, type: 3}
    - {fileID: 21300000, guid: 0dd912b9be629554e9fb1fc5c4951286, type: 3}
    - {fileID: 21300000, guid: 88a38eb6d21b7914783c0763cca288aa, type: 3}
    - {fileID: 21300000, guid: a674577ce6f84504bb07e181487b5836, type: 3}
    - {fileID: 21300000, guid: 6711d0e2ae2f29b4bb885d512101061f, type: 3}
    - {fileID: 21300000, guid: 3edd90af7c3b44640b43bba77555fff6, type: 3}
    - {fileID: 21300000, guid: f23a8e33357cb484b962bd651e833f07, type: 3}
    - {fileID: 21300000, guid: 06aa5b453977f224a8db4b03e0bec992, type: 3}
    - {fileID: 21300000, guid: 482d1f92303ec5543892270f1af217c2, type: 3}
    - {fileID: 21300000, guid: 59dcd8c3147cda7458700707a6b03b64, type: 3}
    - {fileID: 21300000, guid: 038b812a0b7fda640b8452c879b11940, type: 3}
  m_AnimationClipSettings:
    serializedVersion: 2
    m_AdditiveReferencePoseClip: {fileID: 0}
    m_AdditiveReferencePoseTime: 0
    m_StartTime: 0
    m_StopTime: 1.1666667
    m_OrientationOffsetY: 0
    m_Level: 0
    m_CycleOffset: 0
    m_HasAdditiveReferencePose: 0
    m_LoopTime: 0
    m_LoopBlend: 0
    m_LoopBlendOrientation: 0
    m_LoopBlendPositionY: 0
    m_LoopBlendPositionXZ: 0
    m_KeepOriginalOrientation: 0
    m_KeepOriginalPositionY: 1
    m_KeepOriginalPositionXZ: 0
    m_HeightFromFeet: 0
    m_Mirror: 0
  m_EditorCurves:
  - curve:
      serializedVersion: 2
      m_Curve:
      - serializedVersion: 3
        time: 0
        value: -11.26
        inSlope: 0
        outSlope: 0
        tangentMode: 136
        weightedMode: 0
        inWeight: 0.33333334
        outWeight: 0.33333334
      - serializedVersion: 3
        time: 1.1666667
        value: 0
        inSlope: 0
        outSlope: 0
        tangentMode: 136
        weightedMode: 0
        inWeight: 0.33333334
        outWeight: 0.33333334
      m_PreInfinity: 2
      m_PostInfinity: 2
      m_RotationOrder: 4
    attribute: m_LocalPosition.x
    path: 
    classID: 4
    script: {fileID: 0}
  - curve:
      serializedVersion: 2
      m_Curve:
      - serializedVersion: 3
        time: 0
        value: -4.15
        inSlope: 0
        outSlope: 0
        tangentMode: 136
        weightedMode: 0
        inWeight: 0.33333334
        outWeight: 0.33333334
      - serializedVersion: 3
        time: 1.1666667
        value: 0
        inSlope: 0
        outSlope: 0
        tangentMode: 136
        weightedMode: 0
        inWeight: 0.33333334
        outWeight: 0.33333334
      m_PreInfinity: 2
      m_PostInfinity: 2
      m_RotationOrder: 4
    attribute: m_LocalPosition.y
    path: 
    classID: 4
    script: {fileID: 0}
  - curve:
      serializedVersion: 2
      m_Curve:
      - serializedVersion: 3
        time: 0
        value: 0
        inSlope: 0
        outSlope: 0
        tangentMode: 136
        weightedMode: 0
        inWeight: 0.33333334
        outWeight: 0.33333334
      - serializedVersion: 3
        time: 1.1666667
        value: 0
        inSlope: 0
        outSlope: 0
        tangentMode: 136
        weightedMode: 0
        inWeight: 0.33333334
        outWeight: 0.33333334
      m_PreInfinity: 2
      m_PostInfinity: 2
      m_RotationOrder: 4
    attribute: m_LocalPosition.z
    path: 
    classID: 4
    script: {fileID: 0}
  m_EulerEditorCurves: []
  m_HasGenericRootTransform: 1
  m_HasMotionFloatCurves: 0
  m_Events: []
